Projects,5%,10%,25%,50%,75%,90%,95%,99%,100%,mean,std
Agilefant,1.00,1.00,1.00,1.00,1.00,1.00,1.00,1.00,6.00,1.01,0.20
ANTLR,1.00,1.00,1.00,1.00,1.00,1.00,1.00,1.00,5.00,1.00,0.07
Apache_Derby,1.00,1.00,1.00,1.00,1.00,1.00,1.00,1.00,1.00,1.00,0.00
Apache_Isis,1.00,1.00,1.00,1.00,1.00,1.00,1.00,4.00,13.00,1.08,0.52
Apache_Tapestry,1.00,1.00,1.00,1.00,1.00,1.00,1.00,2.00,9.00,1.02,0.21
Apache_Tomcat,1.00,1.00,1.00,1.00,1.00,1.00,1.00,1.00,8.00,1.00,0.12
ArgoUML,1.00,1.00,1.00,1.00,1.00,1.00,1.00,1.00,1.00,1.00,0.00
Checkstyle,1.00,1.00,1.00,1.00,1.00,1.00,1.00,1.00,1.00,1.00,0.00
Dependometer,1.00,1.00,1.00,1.00,1.00,1.00,1.00,4.00,4.00,1.08,0.50
ElasticSearch,1.00,1.00,1.00,1.00,1.00,1.00,1.00,1.00,44.00,1.00,0.34
Hibernate_commons,1.00,1.00,1.00,1.00,1.00,1.00,1.00,1.00,1.00,1.00,0.00
Hibernate_core,1.00,1.00,1.00,1.00,1.00,1.00,1.00,4.00,58.00,1.08,0.91
JChemPaint,1.00,1.00,1.00,1.00,1.00,1.00,1.00,1.00,29.00,1.20,2.36
Jenkins,1.00,1.00,1.00,1.00,1.00,1.00,1.00,1.00,4.00,1.00,0.06
JGit,1.00,1.00,1.00,1.00,1.00,1.00,1.00,1.00,6.00,1.00,0.08
JMock,1.00,1.00,1.00,1.00,1.00,1.00,1.00,1.00,1.00,1.00,0.00
Junit,1.00,1.00,1.00,1.00,1.00,1.00,1.00,1.00,2.00,1.00,0.04
Lombok,1.00,1.00,1.00,1.00,1.00,1.00,1.00,1.00,2.00,1.00,0.04
Megamek,1.00,1.00,1.00,1.00,1.00,1.00,1.00,1.00,1.00,1.00,0.00
Metric_Miner,1.00,1.00,1.00,1.00,1.00,1.00,1.00,1.00,1.00,1.00,0.00
OpenCMS,1.00,1.00,1.00,1.00,1.00,1.00,1.00,1.00,4.00,1.00,0.07
Oval,1.00,1.00,1.00,1.00,1.00,1.00,1.00,1.00,1.00,1.00,0.05
Spring,1.00,1.00,1.00,1.00,1.00,1.00,1.00,1.00,8.00,1.01,0.14
VoltDB,1.00,1.00,1.00,1.00,1.00,1.00,1.00,4.00,7.00,1.05,0.37
VRaptor,1.00,1.00,1.00,1.00,1.00,1.00,1.00,1.00,1.00,1.00,0.03
