Projects,5%,10%,25%,50%,75%,90%,95%,99%,100%,mean,std
Agilefant,0.00,0.00,0.00,40.00,66.00,84.00,88.00,91.82,94.00,37.58,31.64
ANTLR,0.00,0.00,50.00,75.00,87.00,93.80,95.40,97.00,98.00,59.83,34.41
Apache_Derby,0.00,0.00,0.00,50.00,80.00,87.00,91.50,96.00,98.00,46.61,35.27
Apache_Isis,0.00,0.00,0.00,50.00,66.00,80.00,87.00,93.00,97.00,36.34,32.43
Apache_Tapestry,0.00,0.00,0.00,0.00,50.00,80.00,85.00,95.00,99.00,26.60,32.68
Apache_Tomcat,0.00,0.00,0.00,60.00,84.00,93.00,96.00,98.00,99.00,49.99,37.26
ArgoUML,0.00,0.00,0.00,50.00,71.00,83.00,91.00,94.00,98.00,40.51,34.50
Checkstyle,0.00,0.00,0.00,0.00,0.00,50.00,57.20,66.00,66.00,7.65,19.81
Dependometer,0.00,0.00,0.00,0.00,0.00,50.00,50.00,78.76,88.00,10.56,23.05
ElasticSearch,0.00,0.00,0.00,50.00,75.00,86.00,90.00,95.00,99.00,44.18,34.67
Hibernate_commons,0.00,0.00,0.00,0.00,50.00,51.00,60.30,64.86,66.00,18.30,26.01
Hibernate_core,0.00,0.00,0.00,25.00,60.00,80.00,89.00,96.00,99.00,31.30,32.32
JChemPaint,0.00,0.00,0.00,0.00,0.00,71.60,88.80,93.76,96.00,16.61,31.82
Jenkins,0.00,0.00,0.00,33.00,60.00,75.00,83.00,88.00,98.00,34.10,29.82
JGit,0.00,0.00,20.00,66.00,80.00,90.00,93.90,97.00,99.00,52.08,33.64
JMock,0.00,0.00,0.00,0.00,47.00,67.00,75.30,81.10,85.00,17.68,29.02
Junit,0.00,0.00,0.00,25.00,66.00,80.00,87.00,95.00,98.00,32.99,34.41
Lombok,0.00,0.00,0.00,25.00,66.00,80.00,87.00,95.00,98.00,32.99,34.41
Megamek,0.00,0.00,0.00,0.00,66.00,85.00,92.00,98.00,99.00,32.48,36.31
Metric_Miner,0.00,0.00,0.00,0.00,50.00,76.60,88.80,99.00,99.00,25.15,33.45
OpenCMS,0.00,0.00,0.00,50.00,75.00,85.00,88.00,92.00,98.00,40.66,34.85
Oval,0.00,0.00,0.00,37.00,50.00,66.00,73.95,83.34,87.00,31.33,25.96
Spring,0.00,0.00,0.00,50.00,72.00,85.00,88.00,93.15,97.00,44.18,32.22
VoltDB,0.00,0.00,0.00,50.00,80.00,88.00,92.00,96.00,99.00,43.68,36.88
VRaptor,0.00,0.00,0.00,25.00,57.00,77.00,82.80,89.12,97.00,29.40,31.36
