Projects,5%,10%,25%,50%,75%,90%,95%,99%,100%,mean,std
Agilefant,0.00,0.00,0.00,0.00,1.00,2.00,2.00,4.00,8.00,0.59,0.85
ANTLR,0.00,0.00,0.00,1.00,1.00,1.00,1.00,1.00,3.00,0.54,0.50
Apache_Derby,0.00,0.00,0.00,0.00,0.00,1.00,1.00,1.00,2.00,0.12,0.33
Apache_Isis,0.00,0.00,0.00,0.00,1.00,1.00,1.00,3.00,7.00,0.45,0.65
Apache_Tapestry,0.00,0.00,0.00,0.00,1.00,1.00,1.00,3.00,5.00,0.44,0.65
Apache_Tomcat,0.00,0.00,0.00,0.00,1.00,1.00,1.00,1.00,5.00,0.38,0.50
ArgoUML,0.00,0.00,0.00,0.00,0.00,1.00,1.00,1.00,3.00,0.18,0.39
Checkstyle,0.00,0.00,0.00,0.00,0.00,1.00,1.00,1.00,1.00,0.12,0.32
Dependometer,0.00,0.00,0.00,0.00,0.00,1.00,1.00,1.00,3.00,0.19,0.42
ElasticSearch,0.00,0.00,0.00,0.00,1.00,1.00,1.00,1.00,18.00,0.27,0.46
Hibernate_commons,0.00,0.00,0.00,0.00,0.00,1.00,1.00,2.00,2.00,0.18,0.45
Hibernate_core,0.00,0.00,0.00,0.00,1.00,1.00,2.00,3.00,27.00,0.54,0.79
JChemPaint,0.00,0.00,0.00,0.00,0.00,1.00,1.00,1.00,2.00,0.24,0.43
Jenkins,0.00,0.00,0.00,0.00,1.00,1.00,1.00,2.00,4.00,0.43,0.61
JGit,0.00,0.00,0.00,0.00,1.00,1.00,1.00,1.00,3.00,0.38,0.50
JMock,0.00,0.00,0.00,0.00,0.00,1.00,1.00,1.00,2.00,0.21,0.43
Junit,0.00,0.00,0.00,1.00,1.00,1.00,1.00,3.00,6.00,0.58,0.69
Lombok,0.00,0.00,0.00,1.00,1.00,1.00,1.00,3.00,6.00,0.58,0.69
Megamek,0.00,0.00,0.00,0.00,0.00,1.00,1.00,1.00,3.00,0.15,0.36
Metric_Miner,0.00,0.00,0.00,0.00,1.00,1.00,1.00,1.00,2.00,0.41,0.50
OpenCMS,0.00,0.00,0.00,0.00,0.00,1.00,1.00,1.00,3.00,0.17,0.41
Oval,0.00,0.00,0.00,0.00,0.00,1.00,2.75,4.00,4.00,0.39,0.91
Spring,0.00,0.00,0.00,1.00,1.00,1.00,2.00,3.00,7.00,0.59,0.68
VoltDB,0.00,0.00,0.00,0.00,1.00,1.00,1.00,2.00,24.00,0.30,0.51
VRaptor,0.00,0.00,0.00,1.00,1.00,1.00,1.00,3.00,5.00,0.59,0.64
